# BEGIN PLOT
RatioPlotErrorBandColor={[rgb]{0.8,0.8,0.5}}
DrawOnly=//nfs/dust/cms/user/hengyang/project2/cascade/zj_origin/zj_origin.yoda/CMS_2019_I1719955:MODE=ZJet/d01-x01-y01[_VarBand] //nfs/dust/cms/user/hengyang/project2/cascade/zj_new/zj_new.yoda/CMS_2019_I1719955:MODE=ZJet/d01-x01-y01[_VarBand] /CMS_2019_I1719955/d01-x01-y01 //nfs/dust/cms/user/hengyang/project2/cascade/zj_origin/zj_origin.yoda/CMS_2019_I1719955:MODE=ZJet/d01-x01-y01 //nfs/dust/cms/user/hengyang/project2/cascade/zj_new/zj_new.yoda/CMS_2019_I1719955:MODE=ZJet/d01-x01-y01
Title=CMS, 13 TeV, pp $\rightarrow$ Z+1jet(two jets),$200<p_{\text{T}}^\text{leading}<300$~GeV
RatioPlotReference=/CMS_2019_I1719955/d01-x01-y01
RatioPlot=1
LogY=0
RatioPlotYMax=1.15
LegendOnly=/CMS_2019_I1719955/d01-x01-y01 //nfs/dust/cms/user/hengyang/project2/cascade/zj_origin/zj_origin.yoda/CMS_2019_I1719955:MODE=ZJet/d01-x01-y01 //nfs/dust/cms/user/hengyang/project2/cascade/zj_new/zj_new.yoda/CMS_2019_I1719955:MODE=ZJet/d01-x01-y01
LegendXPos=0.085
XLabel=$\Delta\phi_{12}$ [deg]
YLabel=$\frac{1}{\sigma}\frac{d\sigma}{d\Delta\phi_{12}}$ [deg$^{-1}$]
YMin=0.031
Legend=1
RatioPlotYMin=0.85
FullRange=1
# END PLOT

# BEGIN HISTO1D /CMS_2019_I1719955/d01-x01-y01
ConnectBins=0
ErrorBars=1
IsRef=1
Path=/CMS_2019_I1719955/d01-x01-y01
PolyMarker=*
Title=Data
# xlow	 xhigh	 val	 errminus	 errplus
1.700000e+02	1.710000e+02	3.651000e-02	3.301515e-04	3.301515e-04
1.710000e+02	1.720000e+02	4.011000e-02	4.472136e-04	4.472136e-04
1.720000e+02	1.730000e+02	4.365000e-02	4.382921e-04	4.382921e-04
1.730000e+02	1.740000e+02	4.765000e-02	4.341659e-04	4.341659e-04
1.740000e+02	1.750000e+02	5.175000e-02	4.919350e-04	4.919350e-04
1.750000e+02	1.760000e+02	5.788000e-02	6.369458e-04	6.369458e-04
1.760000e+02	1.770000e+02	6.287000e-02	6.132699e-04	6.132699e-04
1.770000e+02	1.780000e+02	6.843000e-02	6.907966e-04	6.907966e-04
1.780000e+02	1.790000e+02	7.403000e-02	9.340771e-04	9.340771e-04
1.790000e+02	1.800000e+02	7.840000e-02	1.145600e-03	1.145600e-03
# END HISTO1D


# BEGIN HISTO1D //nfs/dust/cms/user/hengyang/project2/cascade/zj_origin/zj_origin.yoda/CMS_2019_I1719955:MODE=ZJet/d01-x01-y01[_VarBand]
BandComponentEnv=MUR.*MUF.*
ErrorBandColor=red!30
ErrorBandOpacity=0.3
ErrorBands=1
ErrorBars=0
LineColor=red!30
LineStyle=solid
Path=//nfs/dust/cms/user/hengyang/project2/cascade/zj_origin/zj_origin.yoda/CMS_2019_I1719955:MODE=ZJet/d01-x01-y01[_VarBand]
Title=zj_origin
# xlow	 xhigh	 val	 errminus	 errplus
1.700000e+02	1.710000e+02	3.187176e-02	2.728565e-04	2.826494e-04
1.710000e+02	1.720000e+02	3.596731e-02	3.681534e-04	3.409150e-04
1.720000e+02	1.730000e+02	3.947909e-02	6.770772e-04	5.616208e-04
1.730000e+02	1.740000e+02	4.532414e-02	7.441751e-04	6.247926e-04
1.740000e+02	1.750000e+02	5.145156e-02	1.378093e-03	1.097629e-03
1.750000e+02	1.760000e+02	5.900564e-02	1.917502e-03	1.513418e-03
1.760000e+02	1.770000e+02	6.882051e-02	2.539989e-03	1.984876e-03
1.770000e+02	1.780000e+02	8.076859e-02	3.133513e-03	2.365896e-03
1.780000e+02	1.790000e+02	9.621569e-02	4.720684e-03	3.617931e-03
1.790000e+02	1.800000e+02	1.097782e-01	5.971929e-03	4.570333e-03
# END HISTO1D


# BEGIN HISTO1D //nfs/dust/cms/user/hengyang/project2/cascade/zj_origin/zj_origin.yoda/CMS_2019_I1719955:MODE=ZJet/d01-x01-y01
ErrorBandOpacity=0.3
ErrorBars=1
LineColor=red
LineStyle=solid
Path=//nfs/dust/cms/user/hengyang/project2/cascade/zj_origin/zj_origin.yoda/CMS_2019_I1719955:MODE=ZJet/d01-x01-y01
ScaledBy=3.51982915600621127e+04
Title=zj_origin
# xlow	 xhigh	 val	 errminus	 errplus
1.700000e+02	1.710000e+02	3.187176e-02	2.442275e-04	2.442275e-04
1.710000e+02	1.720000e+02	3.596731e-02	2.590513e-04	2.590513e-04
1.720000e+02	1.730000e+02	3.947909e-02	2.805467e-04	2.805467e-04
1.730000e+02	1.740000e+02	4.532414e-02	2.879929e-04	2.879929e-04
1.740000e+02	1.750000e+02	5.145156e-02	3.063520e-04	3.063520e-04
1.750000e+02	1.760000e+02	5.900564e-02	3.481027e-04	3.481027e-04
1.760000e+02	1.770000e+02	6.882051e-02	3.513589e-04	3.513589e-04
1.770000e+02	1.780000e+02	8.076859e-02	4.096560e-04	4.096560e-04
1.780000e+02	1.790000e+02	9.621569e-02	4.338011e-04	4.338011e-04
1.790000e+02	1.800000e+02	1.097782e-01	4.358855e-04	4.358855e-04
# END HISTO1D


# BEGIN HISTO1D //nfs/dust/cms/user/hengyang/project2/cascade/zj_new/zj_new.yoda/CMS_2019_I1719955:MODE=ZJet/d01-x01-y01[_VarBand]
BandComponentEnv=MUR.*MUF.*
ErrorBandColor=blue!30
ErrorBandOpacity=0.3
ErrorBands=1
ErrorBars=0
LineColor=blue!30
LineStyle=solid
Path=//nfs/dust/cms/user/hengyang/project2/cascade/zj_new/zj_new.yoda/CMS_2019_I1719955:MODE=ZJet/d01-x01-y01[_VarBand]
Title=zj_new
# xlow	 xhigh	 val	 errminus	 errplus
1.700000e+02	1.710000e+02	3.187176e-02	2.728565e-04	2.826494e-04
1.710000e+02	1.720000e+02	3.596731e-02	3.681534e-04	3.409150e-04
1.720000e+02	1.730000e+02	3.947909e-02	6.770772e-04	5.616208e-04
1.730000e+02	1.740000e+02	4.532414e-02	7.441751e-04	6.247926e-04
1.740000e+02	1.750000e+02	5.145156e-02	1.378093e-03	1.097629e-03
1.750000e+02	1.760000e+02	5.900564e-02	1.917502e-03	1.513418e-03
1.760000e+02	1.770000e+02	6.882051e-02	2.539989e-03	1.984876e-03
1.770000e+02	1.780000e+02	8.076859e-02	3.133513e-03	2.365896e-03
1.780000e+02	1.790000e+02	9.621569e-02	4.720684e-03	3.617931e-03
1.790000e+02	1.800000e+02	1.097782e-01	5.971929e-03	4.570333e-03
# END HISTO1D


# BEGIN HISTO1D //nfs/dust/cms/user/hengyang/project2/cascade/zj_new/zj_new.yoda/CMS_2019_I1719955:MODE=ZJet/d01-x01-y01
ErrorBandOpacity=0.3
ErrorBars=1
LineColor=blue
LineStyle=solid
Path=//nfs/dust/cms/user/hengyang/project2/cascade/zj_new/zj_new.yoda/CMS_2019_I1719955:MODE=ZJet/d01-x01-y01
ScaledBy=3.51982915600621127e+04
Title=zj_new
# xlow	 xhigh	 val	 errminus	 errplus
1.700000e+02	1.710000e+02	3.187176e-02	2.442275e-04	2.442275e-04
1.710000e+02	1.720000e+02	3.596731e-02	2.590513e-04	2.590513e-04
1.720000e+02	1.730000e+02	3.947909e-02	2.805467e-04	2.805467e-04
1.730000e+02	1.740000e+02	4.532414e-02	2.879929e-04	2.879929e-04
1.740000e+02	1.750000e+02	5.145156e-02	3.063520e-04	3.063520e-04
1.750000e+02	1.760000e+02	5.900564e-02	3.481027e-04	3.481027e-04
1.760000e+02	1.770000e+02	6.882051e-02	3.513589e-04	3.513589e-04
1.770000e+02	1.780000e+02	8.076859e-02	4.096560e-04	4.096560e-04
1.780000e+02	1.790000e+02	9.621569e-02	4.338011e-04	4.338011e-04
1.790000e+02	1.800000e+02	1.097782e-01	4.358855e-04	4.358855e-04
# END HISTO1D

